{
  "controller_mappings": {
    "version": "3",
    "revision": "10",
    "title": "Standard gamepad",
    "description": "#SettingsController_AutosaveDescription",
    "creator": "76561198029876767",
    "progenitor": "workshop://2890605008",
    "url": "workshop://2890605008",
    "export_type": "personal_cloud",
    "controller_type": "controller_neptune",
    "controller_caps": "23117823",
    "major_revision": "0",
    "minor_revision": "0",
    "Timestamp": "-359014891",
    "localization": {
      "english": {
        "title": "Gamepad",
        "description": "This template is for games that already have built-in gamepad support.  Intended for dual stick games such as twin-stick shooters, side-scrollers, etc."
      },
      "czech": {
        "title": "Gamepad",
        "description": "Tato šablona je pro většinu her podporujících gamepad a byla navržena pro použití ve hrách využívajících dvě páčky, jakými jsou například plošinovky nebo automatové hry."
      },
      "danish": {
        "title": "Gamepad",
        "description": "Denne skabelon er til spil, der allerede har indbygget gamepad-understøttelse. Beregnet til spil med dobbelte styrepinde såsom twin-stick shooters, side-scrollers osv."
      },
      "dutch": {
        "title": "Gamepad",
        "description": "Deze template is voor spellen die al ingebouwde gamepadondersteuning hebben. Bedoeld voor dual-stick spellen zoals twin-stick-shooters, side-scrollers, etc."
      },
      "finnish": {
        "title": "Ohjain",
        "description": "Tämä malli on muita ohjaimia valmiiksi tukeville peleille. Se on tarkoitettu kahta sauvaa käyttäville peleille, kuten twin-stick shooterit, side-scrollerit, jne."
      },
      "french": {
        "title": "Manette",
        "description": "Ce modèle fonctionne pour les jeux conçus pour manettes à deux sticks tels que les jeux de type twin-stick shooter, à défilement horizontal (side-scrollers), etc."
      },
      "german": {
        "title": "Gamepad",
        "description": "Diese Vorlage ist für Spiele konzipiert, die bereits volle Unterstützung für Gamepads mit sich bringen. Gedacht für Zwei-Analogstick-Spiele wie Twin-Stick-Shooter, Side-Scrollers usw."
      },
      "hungarian": {
        "title": "Gamepad",
        "description": "Ez a sablon olyan játékokhoz való, melyek már rendelkeznek beépített gamepad-támogatással. Olyan két karos játékokhoz szánva, mint a kétkaros vagy oldalnézetes lövöldözős játékok stb."
      },
      "italian": {
        "title": "Controller",
        "description": "Questo modello funziona per la maggior parte dei giochi che supportano i controller in modalità nativa."
      },
      "japanese": {
        "title": "ゲームパッド",
        "description": "このテンプレートは、標準でゲームパッドをサポートしているツインスティックシューターや横スクロール等といったデュアルスティックゲームを対象としたゲーム向けです。"
      },
      "koreana": {
        "title": "게임패드",
        "description": "게임 패드를 지원하도록 설계된 게임들을 위한 설정입니다. 이중 스틱 슈팅 게임, 사이드 스크롤 게임 등 스틱을 두 개 쓰는 게임을 염두에 두고 만들어졌습니다."
      },
      "polish": {
        "title": "Kontroler",
        "description": "Ten szablon jest odpowiedni dla gier, które już mają wbudowane wsparcie dla kontrolerów. Przeznaczony dla gier obsługujących dwie gałki, m.in. twin-stick shootery, side-scrollery itp."
      },
      "portuguese": {
        "title": "Comando",
        "description": "Este modelo é indicado para jogos que já têm compatibilidade nativa com comando. Foi concebido para jogos de tiros que usam dois sticks, jogos de plataformas, de naves, etc."
      },
      "romanian": {
        "title": "Gamepad",
        "description": "Șablonul acesta este pentru jocurile care au deja suport pentru gamepad implementat. Destinat pentru jocuri dual stick, precum shooter-e twin-stick, side-scroller, etc."
      },
      "russian": {
        "title": "Геймпад",
        "description": "Этот шаблон подходит для большинства игр с поддержкой геймпада — например, для шутеров с видом сверху или сбоку."
      },
      "spanish": {
        "title": "Mando",
        "description": "Esta plantilla es para juegos que ya incluyen de serie compatibilidad con mando. Está destinada a juegos de doble stick como twin-stick shooters, side-scrollers, etc."
      },
      "swedish": {
        "title": "Gamepad",
        "description": "Denna mall är för spel som redan har inbyggt stöd för spelkontroller. Avsett för spel som använder två styrspakar, som twin-stick shooters och side-scrollers, etc."
      },
      "schinese": {
        "title": "手柄",
        "description": "该模板适用于已内置手柄支持的游戏。针对双摇杆游戏，如双摇杆射击游戏、横版过关游戏等设计。"
      },
      "thai": {
        "title": "เกมแพด"
      },
      "brazilian": {
        "title": "Controle padrão",
        "description": "Este modelo é para jogos já compatíveis com controle que usam ambas as alavancas, como jogos de nave, etc."
      },
      "bulgarian": {
        "title": "Геймпад",
        "description": "Този шаблон е за игри, които вече имат вградена поддръжка на геймпад. Предназначен e за игри ползващи двата стика. Като например, екшъни за два аналогови стика, странични скролери и т.н."
      },
      "greek": {
        "title": "Χειριστήριο",
        "description": "Αυτό το πρότυπο ορίζεται για παιχνίδια τα οποία έχουν ήδη υποστήριξη χειριστηρίου. Προορίζεται για παιχνίδια dual-stick όπως twin-stick shooters, side-scrollers, κλπ."
      },
      "turkish": {
        "title": "Oyun Kumandası",
        "description": "Bu şablon hali hazırda oyun içi oyun kumandası desteği ve birincil veya üçüncü kişi kontrollü kameraya sahip oyunlar içindir. Çift çubuk kullanılan oyunlar olan ikiz çubuk nişancılık, side-scroller oyunlar vb. içindir."
      },
      "ukrainian": {
        "title": "Ґеймпад",
        "description": "Цей шаблон для більшості ігор, в яких вже вбудовано підтримку ґеймпада. Призначено для ігор з керуванням двома стіками."
      }
    },
    "group": {
      "id": "0",
      "mode": "four_buttons",
      "name": "",
      "description": "",
      "inputs": {
        "button_a": {
          "activators": {
            "Full_Press": {
              "bindings": {
                "binding": "xinput_button A"
              }
            }
          },
          "disabled_activators": {
          }
        },
        "button_b": {
          "activators": {
            "Full_Press": {
              "bindings": {
                "binding": "xinput_button B"
              }
            }
          },
          "disabled_activators": {
          }
        },
        "button_x": {
          "activators": {
            "Full_Press": {
              "bindings": {
                "binding": "xinput_button X"
              }
            }
          },
          "disabled_activators": {
          }
        },
        "button_y": {
          "activators": {
            "Full_Press": {
              "bindings": {
                "binding": "xinput_button Y"
              }
            }
          },
          "disabled_activators": {
          }
        }
      }
    },
    "group": {
      "id": "1",
      "mode": "dpad",
      "name": "",
      "description": "",
      "inputs": {
        "dpad_north": {
          "activators": {
            "Full_Press": {
              "bindings": {
                "binding": "xinput_button dpad_up"
              },
              "settings": {
                "haptic_intensity": "1"
              }
            }
          },
          "disabled_activators": {
          }
        },
        "dpad_south": {
          "activators": {
            "Full_Press": {
              "bindings": {
                "binding": "xinput_button dpad_down"
              },
              "settings": {
                "haptic_intensity": "1"
              }
            }
          },
          "disabled_activators": {
          }
        },
        "dpad_east": {
          "activators": {
            "Full_Press": {
              "bindings": {
                "binding": "xinput_button dpad_right"
              },
              "settings": {
                "haptic_intensity": "1"
              }
            }
          },
          "disabled_activators": {
          }
        },
        "dpad_west": {
          "activators": {
            "Full_Press": {
              "bindings": {
                "binding": "xinput_button dpad_left"
              },
              "settings": {
                "haptic_intensity": "1"
              }
            }
          },
          "disabled_activators": {
          }
        }
      },
      "gameactions": {
      }
    },
    "group": {
      "id": "2",
      "mode": "joystick_move",
      "name": "",
      "description": "",
      "inputs": {
        "click": {
          "activators": {
            "Soft_Press": {
              "bindings": {
                "binding": "xinput_button JOYSTICK_RIGHT"
              }
            }
          },
          "disabled_activators": {
          }
        }
      },
      "gameactions": {
      }
    },
    "group": {
      "id": "3",
      "mode": "joystick_move",
      "name": "",
      "description": "",
      "inputs": {
        "click": {
          "activators": {
            "Full_Press": {
              "bindings": {
                "binding": "xinput_button JOYSTICK_LEFT"
              },
              "settings": {
                "haptic_intensity": "2"
              }
            }
          },
          "disabled_activators": {
          }
        }
      },
      "settings": {
        "deadzone_inner_radius": "7199"
      }
    },
    "group": {
      "id": "4",
      "mode": "trigger",
      "name": "",
      "description": "",
      "inputs": {
      },
      "settings": {
        "output_trigger": "1"
      }
    },
    "group": {
      "id": "5",
      "mode": "trigger",
      "name": "",
      "description": "",
      "inputs": {
      },
      "settings": {
        "output_trigger": "2"
      }
    },
    "group": {
      "id": "6",
      "mode": "joystick_move",
      "name": "",
      "description": "",
      "inputs": {
        "click": {
          "activators": {
            "Soft_Press": {
              "bindings": {
                "binding": "xinput_button JOYSTICK_RIGHT"
              }
            }
          },
          "disabled_activators": {
          }
        }
      }
    },
    "group": {
      "id": "8",
      "mode": "joystick_move",
      "name": "",
      "description": "",
      "inputs": {
        "click": {
          "activators": {
            "Full_Press": {
              "bindings": {
                "binding": "xinput_button JOYSTICK_RIGHT"
              }
            }
          },
          "disabled_activators": {
          }
        }
      }
    },
    "group": {
      "id": "9",
      "mode": "dpad",
      "name": "",
      "description": "",
      "inputs": {
        "dpad_north": {
          "activators": {
            "Full_Press": {
              "bindings": {
                "binding": "xinput_button DPAD_UP"
              },
              "settings": {
                "haptic_intensity": "1"
              }
            }
          },
          "disabled_activators": {
          }
        },
        "dpad_south": {
          "activators": {
            "Full_Press": {
              "bindings": {
                "binding": "xinput_button DPAD_DOWN"
              },
              "settings": {
                "haptic_intensity": "1"
              }
            }
          },
          "disabled_activators": {
          }
        },
        "dpad_east": {
          "activators": {
            "Full_Press": {
              "bindings": {
                "binding": "xinput_button DPAD_RIGHT"
              },
              "settings": {
                "haptic_intensity": "1"
              }
            }
          },
          "disabled_activators": {
          }
        },
        "dpad_west": {
          "activators": {
            "Full_Press": {
              "bindings": {
                "binding": "xinput_button DPAD_LEFT"
              },
              "settings": {
                "haptic_intensity": "1"
              }
            }
          },
          "disabled_activators": {
          }
        }
      },
      "settings": {
        "requires_click": "0",
        "haptic_intensity_override": "0"
      }
    },
    "group": {
      "id": "10",
      "mode": "single_button",
      "name": "",
      "description": "",
      "inputs": {
        "click": {
          "activators": {
            "Soft_Press": {
              "bindings": {
                "binding": "xinput_button START"
              }
            }
          },
          "disabled_activators": {
          }
        }
      }
    },
    "group": {
      "id": "11",
      "mode": "single_button",
      "name": "",
      "description": "",
      "inputs": {
        "click": {
          "activators": {
            "Soft_Press": {
              "bindings": {
                "binding": "xinput_button SELECT"
              }
            }
          },
          "disabled_activators": {
          }
        }
      }
    },
    "group": {
      "id": "12",
      "mode": "absolute_mouse",
      "name": "",
      "description": "",
      "inputs": {
        "click": {
          "activators": {
            "Soft_Press": {
              "bindings": {
                "binding": "xinput_button JOYSTICK_RIGHT"
              }
            }
          },
          "disabled_activators": {
          }
        }
      }
    },
    "group": {
      "id": "13",
      "mode": "mouse_joystick",
      "name": "",
      "description": "",
      "inputs": {
        "click": {
          "activators": {
            "Soft_Press": {
              "bindings": {
                "binding": "xinput_button JOYSTICK_RIGHT"
              }
            }
          },
          "disabled_activators": {
          }
        }
      }
    },
    "group": {
      "id": "7",
      "mode": "switches",
      "name": "",
      "description": "",
      "inputs": {
        "button_escape": {
          "activators": {
            "Full_Press": {
              "bindings": {
                "binding": "xinput_button start"
              }
            }
          },
          "disabled_activators": {
          }
        },
        "button_menu": {
          "activators": {
            "Full_Press": {
              "bindings": {
                "binding": "xinput_button select"
              }
            }
          },
          "disabled_activators": {
          }
        },
        "left_bumper": {
          "activators": {
            "Full_Press": {
              "bindings": {
                "binding": "xinput_button shoulder_left"
              }
            }
          },
          "disabled_activators": {
          }
        },
        "right_bumper": {
          "activators": {
            "Full_Press": {
              "bindings": {
                "binding": "xinput_button shoulder_right"
              }
            }
          },
          "disabled_activators": {
          }
        },
        "button_capture": {
          "activators": {
            "release": {
              "bindings": {
                "binding": "controller_action system_key_1"
              }
            }
          },
          "disabled_activators": {
          }
        }
      }
    },
    "group": {
      "id": "15",
      "mode": "dpad",
      "name": "",
      "description": "",
      "inputs": {
        "dpad_north": {
          "activators": {
            "Full_Press": {
              "bindings": {
                "binding": "xinput_button DPAD_UP"
              },
              "settings": {
                "haptic_intensity": "0"
              }
            }
          },
          "disabled_activators": {
          }
        },
        "dpad_south": {
          "activators": {
            "Full_Press": {
              "bindings": {
                "binding": "key_press B"
              },
              "settings": {
                "haptic_intensity": "0"
              }
            }
          },
          "disabled_activators": {
          }
        },
        "dpad_east": {
          "activators": {
            "Full_Press": {
              "bindings": {
                "binding": "mouse_button LEFT"
              },
              "settings": {
                "haptic_intensity": "0"
              }
            }
          },
          "disabled_activators": {
          }
        },
        "dpad_west": {
          "activators": {
            "Full_Press": {
              "bindings": {
                "binding": "xinput_button A"
              },
              "settings": {
                "haptic_intensity": "0"
              }
            }
          },
          "disabled_activators": {
          }
        }
      },
      "gameactions": {
      }
    },
    "preset": {
      "id": "0",
      "name": "Default",
      "group_source_bindings": {
        "7": "switch active",
        "0": "button_diamond active",
        "1": "left_trackpad inactive",
        "11": "left_trackpad inactive",
        "2": "right_trackpad inactive",
        "6": "right_trackpad inactive",
        "10": "right_trackpad inactive",
        "12": "right_trackpad inactive",
        "13": "right_trackpad inactive",
        "15": "right_trackpad active",
        "3": "joystick active",
        "4": "left_trigger active",
        "5": "right_trigger active",
        "8": "right_joystick active",
        "9": "dpad active"
      }
    },
    "settings": {
      "left_trackpad_mode": "0",
      "right_trackpad_mode": "0"
    }
  }
}
